Field Guide to Relational and Systems Epidemiology – 5 Finding Your Neighbors
…
kNeighbors$cellID <- 1:nrow(kNeighbors)

neighborsList <- kNeighbors %>% 
  pivot_longer(cols = !matches("cellID"), names_to = NULL, values_to = "neighborID") %>%
  arrange(cellID, neighborID)

return(neighborsList)
}

k <- 10
neighborsList <- kNearestNeighborsList(grid_df, k)

print(neighborsList)

# A tibble: 1,000 × 2
   cellID neighborID
    <int>      <int>
 1      1          2
 2      1          3
 3      1          4
 4      1         11
 5      1         12
 6      1         13
 7      1         21
 8      1         22
 9      1         23
10      1         31
# ℹ 990 more rows

## This takes a data frame with pairs of cells and neighbors and brings in 
## contextual information (number of cases, the per-capita rate) by cell.
## It then 
kNeighborsRates <- inner_join(neighborsList, grid_df,
                              by = join_by(neighborID == cellID)
                              ) %>% 
  select(cellID, numCases, rate) %>%
  group_by(cellID) %>%
  summarize(avgRate = sum(numCases)/k) %>%
  inner_join(select(grid_df, cellID, X, Y))

print(kNeighborsRates)

# A tibble: 100 × 4
   cellID avgRate     X     Y
    <int>   <dbl> <int> <int>
 1      1     0.9     1     1
 2      2     1       2     1
 3      3     1.2     3     1
 4      4     1.4     4     1
 5      5     0.8     5     1
 6      6     0.9     6     1
 7      7     0.9     7     1
 8      8     0.7     8     1
 9      9     0.8     9     1
10     10     1      10     1
# ℹ 90 more rows
…
